2
Lab
3
40
TP
1
60
2
SMA Sage Muhammad Abdullah
2
1234567890 Dek Depe
1234567891 Kak Pewe
SMP Muhammad Fairuzi Teguh
1
1234567892 Sis Dea
1
SMA 1234567890 Lab 1 90.00 true
SMA 1234567890 Lab 2 100.00 false
SMA 1234567890 Lab 3 80.00 true
SMA 1234567890 TP 1 90.00 true
SMA 1234567891 Lab 1 80.00 true
SMA 1234567891 Lab 2 90.00 true
SMA 1234567891 TP 1 85.00 true
SMP 1234567892 Lab 1 100.00 false
SMP 1234567892 Lab 2 90.00 false
SMP 1234567892 Lab 3 0.00 false
SMP 1234567892 TP 1 95.00 false
SELESAI
2
SMA 1234567890
2
SMA 1234567891
2
SMP 1234567892
3
4
SMA 1234567890 SMP
3
99
